<?xml version="1.0" encoding="utf-8"?>
<!-- Generator: Adobe Illustrator 19.0.1, SVG Export Plug-In . SVG Version: 6.00 Build 0)  -->
<svg version="1.1" xmlns="http://www.w3.org/2000/svg" xmlns:xlink="http://www.w3.org/1999/xlink" x="0px" y="0px"
	 viewBox="0 0 167.3 167.3" style="enable-background:new 0 0 167.3 167.3;" xml:space="preserve">
<style type="text/css">
	.st0{fill:#D92C27;}
	.st1{fill:#FFFFFF;}
	.st2{fill:none;stroke:#FFFFFF;stroke-width:3;stroke-miterlimit:10;}
	.st3{fill:none;}
</style>
<g id="Layer_3">
	<circle class="st0" cx="83.7" cy="83.7" r="83.7"/>
</g>
<g id="Layer_1">
	<path class="st1" d="M114.7,92.7c-10.7,0-19.4,8.7-19.4,19.4c0,10.7,8.7,19.4,19.4,19.4c10.7,0,19.4-8.7,19.4-19.4
		C134.1,101.4,125.4,92.7,114.7,92.7z M114.7,127.7c-8.6,0-15.7-7-15.7-15.7c0-8.6,7-15.7,15.7-15.7c8.6,0,15.7,7,15.7,15.7
		C130.4,120.7,123.4,127.7,114.7,127.7z"/>
	<path class="st1" d="M114.6,123h-0.2c-1.5,0-2.8-1.2-2.8-2.8l0.2-16.5c0-1.5,1.2-2.8,2.8-2.8l0,0c1.5,0,2.8,1.2,2.8,2.8l-0.2,16.5
		C117.1,121.8,116.1,123,114.6,123z"/>
	<path class="st1" d="M125.6,112L125.6,112c0,1.5-1.2,2.8-2.8,2.8l-16.1,0c-1.5,0-2.8-1.2-2.8-2.8l0,0c0-1.5,1.2-2.8,2.8-2.8l16.1,0
		C124.4,109.3,125.6,110.5,125.6,112z"/>
	<g>
		<path class="st1" d="M91.2,78.6c0,0-0.8,0.3-1.4-0.2C89.3,78,86.2,72,86.2,72L80,83.1c0,0-0.7,1-1.5,1c-0.8,0-1.6-0.9-1.9-1.7
			c-0.3-0.8-8.5-23.7-8.5-23.7l-9.7,29.6c0,0-0.3,1.2-1.6,1.2c-1,0.1-1.8-0.8-1.9-1.2C54.8,87.9,48,70.1,48,70.1l-3.5,7.1
			c0,0-0.5,1-1.5,1.2c-0.6,0.1-8.5,0-10.1,0c1.5,4.2,3.9,7.9,7,10.9l-0.2,0.1c0,0,17.5,16.2,27.3,22.8c6.7,4.5,12.3,10.5,15.5,14.5
			c1.6,1.9,4.6,1.8,6-0.3l4-5.9c-0.9-1.9-1.4-3.5-1.6-5.4c-1.6-13.2,8-25.4,21.2-26.3c5.1-0.3,9.8,1,13.8,3.5
			c4.9-3.3,8.6-8,10.7-13.6L91.2,78.6z"/>
		<path class="st1" d="M41.4,75l5.2-10.5c0,0,0.6-0.9,1.5-0.9c0.9,0,1.6,0.8,1.6,0.8l7,17.7l10-30.3c0,0,0.9-0.7,1.5-0.7
			c0.6,0,1.5,0.5,1.6,0.9c0.1,0.4,9.1,25.6,9.1,25.6l5.6-10.3c0,0,1.1-0.9,1.6-0.9s1.5,0.5,1.7,0.9c0.2,0.4,4.3,7.8,4.3,7.8
			l45.7-0.2c0.4-2,0.7-4.2,0.6-6.4c-0.3-16.6-15.4-28.9-32-27.2c-9.6,1-17.7,5.5-21.5,14.1C81,46.8,72.9,42.3,63.2,41.3
			c-16.7-1.6-31.8,10.8-31.9,27.5c0,2,0.2,4,0.6,6L41.4,75z"/>
	</g>
</g>
<g id="Layer_2">
	<path class="st2" d="M56.4,43.8"/>
	<path class="st2" d="M45.9,53.7"/>
	<path class="st3" d="M112.9,84.9c-3.7-3.2-13.6-2.2-20.3,2.9L83.9,78c2.1-2.1,4.1-2.4,5.7-2.3c0.1-2.3,1.9-4.1,4.2-4.1
		c2.3,0,4.2,1.9,4.2,4.2c0,2.3-1.9,4.2-4.2,4.2c-1.7,0-3.2-1-3.9-2.5c0.5,1.4,1.9,2.4,3.4,2.7c3.1,0.5,5.7-2.1,5.2-5.2
		c-0.2-1.6-1.4-3-3-3.5c-1.3-0.5-1.6-0.3-2.3-0.3c-2.5,0.3-8.1,1.3-12.1,5l-3.4-3.4c-0.6-0.6-1.6-0.6-2.1,0l-1.2,1.4
		c-0.6,0.6-0.5,1.5,0,2.1l3.6,3.5c-5,6.5-6.8,15.2-2.6,18.5c4.2,3.3,14.2,1.5,19.2-2l11.2,11c-2.7,2.3-6.6,5.8-9.6,5.3
		c0.5-0.7,0.5-1.2,0.5-2.1c0-2.8-2.6-5.1-5.6-4.4c-1.6,0.4-3,1.7-3.3,3.3c-0.7,3,1.5,5.4,4.4,5.6c0.2,0,0.3,0,0.4,0
		c2.5,0.4,9.1,0.4,15.2-5.6l3.6,3.5c0.6,0.6,1.6,0.6,2.1,0l0.9-1c0.6-0.6,0.6-1.5,0-2.1l-3.6-3.7C119.5,96,117.6,89,112.9,84.9z
		 M76.7,92.8c-1.1-1.1,0.1-6,4.1-11.2l8.3,9.2C83.1,95.3,78.4,94.5,76.7,92.8z M108.9,104.2L98.1,93.3c4.3-3.5,11.4-5.5,14.4-1
		C114,94.7,111.4,100.8,108.9,104.2z"/>
</g>
</svg>
